{
  "colors" : [
    {
        "appearances" : [
          {
            "appearance" : "luminosity",
            "value" : "dark"
          }
        ],
      "color" : {
        "color-space" : "srgb",
        "components" : {
          "alpha" : "1.000",
          "blue" : "248",
          "green" : "136",
          "red" : "94"
        }
      },
      "idiom" : "universal"
    },
    {
      
      "color" : {
        "color-space" : "srgb",
        "components" : {
          "alpha" : "1.000",
          "blue" : "57",
          "green" : "146",
          "red" : "232"
        }
      },
      "idiom" : "universal"
    }
  ],
  "info" : {
    "author" : "xcode",
    "version" : 1
  }
}
